{
    "version": "1.0.0",
    "summary": "Test Suites",
    "repository": "https://github.com/gustavo-hms/azulejo.git",
    "license": "GPLv3",
    "source-directories": [
        "../src",
        "."
    ],
    "exposed-modules": [],
    "dependencies": {
        "elm-lang/core": "5.1.1 <= v < 6.0.0",
        "elm-community/elm-test": "4.0.0 <= v < 5.0.0"
    },
    "elm-version": "0.18.0 <= v < 0.19.0"
}
